{
  "id": "Saga",
  "realm": "Saga",
  "displayName": "Saga KTKD",
  "displayNameHtml": "KTKD",
  "notBefore": 0,
  "revokeRefreshToken": false,
  "refreshTokenMaxReuse": 0,
  "accessTokenLifespan": 300,
  "accessTokenLifespanForImplicitFlow": 900,
  "ssoSessionIdleTimeout": 36000,
  "ssoSessionMaxLifespan": 36000,
  "offlineSessionIdleTimeout": 2592000,
  "accessCodeLifespan": 60,
  "accessCodeLifespanUserAction": 300,
  "accessCodeLifespanLogin": 36000,
  "actionTokenGeneratedByAdminLifespan": 43200,
  "actionTokenGeneratedByUserLifespan": 300,
  "enabled": true,
  "sslRequired": "none",
  "registrationAllowed": true,
  "registrationEmailAsUsername": false,
  "rememberMe": false,
  "verifyEmail": false,
  "loginWithEmailAllowed": true,
  "duplicateEmailsAllowed": false,
  "resetPasswordAllowed": false,
  "editUsernameAllowed": false,
  "bruteForceProtected": false,
  "permanentLockout": false,
  "maxFailureWaitSeconds": 900,
  "minimumQuickLoginWaitSeconds": 60,
  "waitIncrementSeconds": 60,
  "quickLoginCheckMilliSeconds": 1000,
  "maxDeltaTimeSeconds": 43200,
  "failureFactor": 30,
  "roles": {
    "realm": [
      {
        "id": "aa29eedf-b61f-44a4-8f8a-5ff32f90faca",
        "name": "uma_authorization",
        "description": "${role_uma_authorization}",
        "scopeParamRequired": false,
        "composite": false,
        "clientRole": false,
        "containerId": "Saga"
      },
      {
        "id": "20431f59-b928-4e5e-bad9-76f5307f36a5",
        "name": "offline_access",
        "description": "${role_offline-access}",
        "scopeParamRequired": true,
        "composite": false,
        "clientRole": false,
        "containerId": "Saga"
      },
      {
        "id": "6be1bc39-cbf1-413c-b13a-249934b82d31",
        "name": "lvl3",
        "scopeParamRequired": false,
        "composite": false,
        "clientRole": false,
        "containerId": "Saga"
      },
      {
        "id": "79c38e3f-6235-4b04-9ee3-8ba360b91a76",
        "name": "xin cap ca",
        "scopeParamRequired": false,
        "composite": false,
        "clientRole": false,
        "containerId": "Saga"
      }
    ],
    "client": {
      "realm-management": [
        {
          "id": "4346fb96-d9ad-4464-a7fb-5471d3164dc4",
          "name": "view-realm",
          "description": "${role_view-realm}",
          "scopeParamRequired": false,
          "composite": false,
          "clientRole": true,
          "containerId": "ed9e801e-7954-481c-90c2-18ca0d1fcaf2"
        },
        {
          "id": "9b24c922-efd8-4504-b496-17a3d4cb5282",
          "name": "view-users",
          "description": "${role_view-users}",
          "scopeParamRequired": false,
          "composite": true,
          "composites": {
            "client": {
              "realm-management": [
                "query-groups",
                "query-users"
              ]
            }
          },
          "clientRole": true,
          "containerId": "ed9e801e-7954-481c-90c2-18ca0d1fcaf2"
        },
        {
          "id": "fb242b4c-50aa-4317-b3f9-af52191b29b0",
          "name": "view-events",
          "description": "${role_view-events}",
          "scopeParamRequired": false,
          "composite": false,
          "clientRole": true,
          "containerId": "ed9e801e-7954-481c-90c2-18ca0d1fcaf2"
        },
        {
          "id": "efc93ee9-cab0-4864-86d9-94550aa79c6e",
          "name": "create-client",
          "description": "${role_create-client}",
          "scopeParamRequired": false,
          "composite": false,
          "clientRole": true,
          "containerId": "ed9e801e-7954-481c-90c2-18ca0d1fcaf2"
        },
        {
          "id": "9447671e-1a5d-49ba-8cea-597e5cbcdfb0",
          "name": "view-authorization",
          "description": "${role_view-authorization}",
          "scopeParamRequired": false,
          "composite": false,
          "clientRole": true,
          "containerId": "ed9e801e-7954-481c-90c2-18ca0d1fcaf2"
        },
        {
          "id": "f34037a6-06e0-4556-a04a-5eaee0f9ef64",
          "name": "view-identity-providers",
          "description": "${role_view-identity-providers}",
          "scopeParamRequired": false,
          "composite": false,
          "clientRole": true,
          "containerId": "ed9e801e-7954-481c-90c2-18ca0d1fcaf2"
        },
        {
          "id": "e35bf8d1-9e98-4512-8af4-a96b1c3ea094",
          "name": "query-realms",
          "description": "${role_query-realms}",
          "scopeParamRequired": false,
          "composite": false,
          "clientRole": true,
          "containerId": "ed9e801e-7954-481c-90c2-18ca0d1fcaf2"
        },
        {
          "id": "30d8be48-e43c-4c42-b418-1c737a5b1cb3",
          "name": "manage-users",
          "description": "${role_manage-users}",
          "scopeParamRequired": false,
          "composite": false,
          "clientRole": true,
          "containerId": "ed9e801e-7954-481c-90c2-18ca0d1fcaf2"
        },
        {
          "id": "72650d9f-9ebf-45c0-b0f0-6151a30128ec",
          "name": "manage-clients",
          "description": "${role_manage-clients}",
          "scopeParamRequired": false,
          "composite": false,
          "clientRole": true,
          "containerId": "ed9e801e-7954-481c-90c2-18ca0d1fcaf2"
        },
        {
          "id": "5bca7a4a-a89f-4938-9377-b3a2193e648b",
          "name": "manage-realm",
          "description": "${role_manage-realm}",
          "scopeParamRequired": false,
          "composite": false,
          "clientRole": true,
          "containerId": "ed9e801e-7954-481c-90c2-18ca0d1fcaf2"
        },
        {
          "id": "5accc837-87e5-4aa4-8154-1cf05bab6c7a",
          "name": "impersonation",
          "description": "${role_impersonation}",
          "scopeParamRequired": false,
          "composite": false,
          "clientRole": true,
          "containerId": "ed9e801e-7954-481c-90c2-18ca0d1fcaf2"
        },
        {
          "id": "3be2e7be-e2a2-4584-b7b2-7196d1626b4e",
          "name": "view-clients",
          "description": "${role_view-clients}",
          "scopeParamRequired": false,
          "composite": true,
          "composites": {
            "client": {
              "realm-management": [
                "query-clients"
              ]
            }
          },
          "clientRole": true,
          "containerId": "ed9e801e-7954-481c-90c2-18ca0d1fcaf2"
        },
        {
          "id": "718498fe-fbba-46a3-8bd8-a85100025bfd",
          "name": "manage-authorization",
          "description": "${role_manage-authorization}",
          "scopeParamRequired": false,
          "composite": false,
          "clientRole": true,
          "containerId": "ed9e801e-7954-481c-90c2-18ca0d1fcaf2"
        },
        {
          "id": "f302e86b-8af3-4218-a8ab-2ff9f4e9376c",
          "name": "query-groups",
          "description": "${role_query-groups}",
          "scopeParamRequired": false,
          "composite": false,
          "clientRole": true,
          "containerId": "ed9e801e-7954-481c-90c2-18ca0d1fcaf2"
        },
        {
          "id": "b5468b77-e3f0-4247-8e30-583669df85a4",
          "name": "manage-events",
          "description": "${role_manage-events}",
          "scopeParamRequired": false,
          "composite": false,
          "clientRole": true,
          "containerId": "ed9e801e-7954-481c-90c2-18ca0d1fcaf2"
        },
        {
          "id": "3605a705-46ca-40ca-a457-27dac825a35d",
          "name": "realm-admin",
          "description": "${role_realm-admin}",
          "scopeParamRequired": false,
          "composite": true,
          "composites": {
            "client": {
              "realm-management": [
                "view-realm",
                "view-users",
                "view-events",
                "create-client",
                "view-authorization",
                "view-identity-providers",
                "query-realms",
                "manage-users",
                "manage-clients",
                "manage-realm",
                "impersonation",
                "view-clients",
                "manage-authorization",
                "query-groups",
                "manage-events",
                "manage-identity-providers",
                "query-clients",
                "query-users"
              ]
            }
          },
          "clientRole": true,
          "containerId": "ed9e801e-7954-481c-90c2-18ca0d1fcaf2"
        },
        {
          "id": "c8665ba0-e5a5-4cac-926b-ffb22707cbdc",
          "name": "manage-identity-providers",
          "description": "${role_manage-identity-providers}",
          "scopeParamRequired": false,
          "composite": false,
          "clientRole": true,
          "containerId": "ed9e801e-7954-481c-90c2-18ca0d1fcaf2"
        },
        {
          "id": "69407d90-9cbd-4c59-8a8a-07e60acbdf57",
          "name": "query-clients",
          "description": "${role_query-clients}",
          "scopeParamRequired": false,
          "composite": false,
          "clientRole": true,
          "containerId": "ed9e801e-7954-481c-90c2-18ca0d1fcaf2"
        },
        {
          "id": "d7edc5f0-993b-4112-abe1-c1e907a93d3e",
          "name": "query-users",
          "description": "${role_query-users}",
          "scopeParamRequired": false,
          "composite": false,
          "clientRole": true,
          "containerId": "ed9e801e-7954-481c-90c2-18ca0d1fcaf2"
        }
      ],
      "security-admin-console": [],
      "vietanh": [],
      "admin-cli": [],
      "Nam": [],
      "nodejs": [],
      "broker": [
        {
          "id": "b80282c1-8367-45c3-96fa-b8be604642b4",
          "name": "read-token",
          "description": "${role_read-token}",
          "scopeParamRequired": false,
          "composite": false,
          "clientRole": true,
          "containerId": "e25865d9-48e6-4253-b52c-0d413e738424"
        }
      ],
      "saga": [
        {
          "id": "fa3ffd35-7404-4d92-826c-95fa04e97b59",
          "name": "lvl3",
          "scopeParamRequired": false,
          "composite": false,
          "clientRole": true,
          "containerId": "b69d1da9-4818-414f-a933-40182cf492fb"
        },
        {
          "id": "4263bb4b-0faf-4351-af52-479d802e587c",
          "name": "uma_protection",
          "scopeParamRequired": false,
          "composite": false,
          "clientRole": true,
          "containerId": "b69d1da9-4818-414f-a933-40182cf492fb"
        }
      ],
      "account": [
        {
          "id": "1ae60697-34c4-49f8-af2b-9f82c6207165",
          "name": "manage-account-links",
          "description": "${role_manage-account-links}",
          "scopeParamRequired": false,
          "composite": false,
          "clientRole": true,
          "containerId": "41b9e303-4e85-41ae-9580-9c33e4c98cd3"
        },
        {
          "id": "548c04f4-9953-4f37-be19-2def2b8c9e0e",
          "name": "view-profile",
          "description": "${role_view-profile}",
          "scopeParamRequired": false,
          "composite": true,
          "composites": {
            "client": {
              "account": [
                "view-profile"
              ]
            }
          },
          "clientRole": true,
          "containerId": "41b9e303-4e85-41ae-9580-9c33e4c98cd3"
        },
        {
          "id": "0542da59-334d-4cd6-9919-adc3b6dc42e3",
          "name": "manage-account",
          "description": "${role_manage-account}",
          "scopeParamRequired": false,
          "composite": true,
          "composites": {
            "client": {
              "account": [
                "manage-account-links"
              ]
            }
          },
          "clientRole": true,
          "containerId": "41b9e303-4e85-41ae-9580-9c33e4c98cd3"
        }
      ]
    }
  },
  "groups": [
    {
      "id": "03b92fa6-b5ef-4c13-b805-7fee88a862ae",
      "name": "Lv1",
      "path": "/Lv1",
      "attributes": {},
      "realmRoles": [],
      "clientRoles": {},
      "subGroups": []
    },
    {
      "id": "e344dafe-b879-4e03-a952-123ce685c4a6",
      "name": "Nomal",
      "path": "/Nomal",
      "attributes": {},
      "realmRoles": [],
      "clientRoles": {},
      "subGroups": []
    }
  ],
  "defaultRoles": [
    "offline_access",
    "uma_authorization"
  ],
  "requiredCredentials": [
    "password"
  ],
  "otpPolicyType": "totp",
  "otpPolicyAlgorithm": "HmacSHA1",
  "otpPolicyInitialCounter": 0,
  "otpPolicyDigits": 6,
  "otpPolicyLookAheadWindow": 1,
  "otpPolicyPeriod": 30,
  "otpSupportedApplications": [
    "FreeOTP",
    "Google Authenticator"
  ],
  "clients": [
    {
      "id": "91aa89ac-1b80-4888-87ba-abecde395114",
      "clientId": "Nam",
      "surrogateAuthRequired": false,
      "enabled": true,
      "clientAuthenticatorType": "client-secret",
      "secret": "**********",
      "redirectUris": [
        "http://iam.ipca.vn:9001/*"
      ],
      "webOrigins": [],
      "notBefore": 0,
      "bearerOnly": false,
      "consentRequired": false,
      "standardFlowEnabled": true,
      "implicitFlowEnabled": false,
      "directAccessGrantsEnabled": true,
      "serviceAccountsEnabled": false,
      "publicClient": true,
      "frontchannelLogout": false,
      "protocol": "openid-connect",
      "attributes": {
        "saml.assertion.signature": "false",
        "saml.multivalued.roles": "false",
        "saml.force.post.binding": "false",
        "saml.encrypt": "false",
        "saml_force_name_id_format": "false",
        "saml.client.signature": "false",
        "saml.authnstatement": "false",
        "saml.server.signature": "false",
        "saml.server.signature.keyinfo.ext": "false",
        "saml.onetimeuse.condition": "false"
      },
      "fullScopeAllowed": true,
      "nodeReRegistrationTimeout": -1,
      "protocolMappers": [
        {
          "id": "5a23cfab-73b9-4f36-86a0-5d7615eb5877",
          "name": "username",
          "protocol": "openid-connect",
          "protocolMapper": "oidc-usermodel-property-mapper",
          "consentRequired": true,
          "consentText": "${username}",
          "config": {
            "userinfo.token.claim": "true",
            "user.attribute": "username",
            "id.token.claim": "true",
            "access.token.claim": "true",
            "claim.name": "preferred_username",
            "jsonType.label": "String"
          }
        },
        {
          "id": "93c9e0ef-0ad9-4b92-b73f-14d93f0b2ae1",
          "name": "given name",
          "protocol": "openid-connect",
          "protocolMapper": "oidc-usermodel-property-mapper",
          "consentRequired": true,
          "consentText": "${givenName}",
          "config": {
            "userinfo.token.claim": "true",
            "user.attribute": "firstName",
            "id.token.claim": "true",
            "access.token.claim": "true",
            "claim.name": "given_name",
            "jsonType.label": "String"
          }
        },
        {
          "id": "f14fe119-2399-4adb-a66e-ae39a3eca623",
          "name": "full name",
          "protocol": "openid-connect",
          "protocolMapper": "oidc-full-name-mapper",
          "consentRequired": true,
          "consentText": "${fullName}",
          "config": {
            "id.token.claim": "true",
            "access.token.claim": "true"
          }
        },
        {
          "id": "a731fe3d-87f3-4d08-8bf7-4f4ad23db21d",
          "name": "role list",
          "protocol": "saml",
          "protocolMapper": "saml-role-list-mapper",
          "consentRequired": false,
          "config": {
            "single": "false",
            "attribute.nameformat": "Basic",
            "attribute.name": "Role"
          }
        },
        {
          "id": "91a18cea-98c3-4c4b-ac5e-a04360d6aa06",
          "name": "email",
          "protocol": "openid-connect",
          "protocolMapper": "oidc-usermodel-property-mapper",
          "consentRequired": true,
          "consentText": "${email}",
          "config": {
            "userinfo.token.claim": "true",
            "user.attribute": "email",
            "id.token.claim": "true",
            "access.token.claim": "true",
            "claim.name": "email",
            "jsonType.label": "String"
          }
        },
        {
          "id": "bf462be8-69c0-4815-af24-193847cd9fd1",
          "name": "family name",
          "protocol": "openid-connect",
          "protocolMapper": "oidc-usermodel-property-mapper",
          "consentRequired": true,
          "consentText": "${familyName}",
          "config": {
            "userinfo.token.claim": "true",
            "user.attribute": "lastName",
            "id.token.claim": "true",
            "access.token.claim": "true",
            "claim.name": "family_name",
            "jsonType.label": "String"
          }
        }
      ],
      "useTemplateConfig": false,
      "useTemplateScope": false,
      "useTemplateMappers": false
    },
    {
      "id": "fd850a0a-30a2-4d2c-8a00-2b8857b21bb8",
      "clientId": "vietanh",
      "surrogateAuthRequired": false,
      "enabled": true,
      "clientAuthenticatorType": "client-secret",
      "secret": "**********",
      "redirectUris": [
        "http://localhost:3000/*"
      ],
      "webOrigins": [],
      "notBefore": 0,
      "bearerOnly": false,
      "consentRequired": false,
      "standardFlowEnabled": true,
      "implicitFlowEnabled": false,
      "directAccessGrantsEnabled": true,
      "serviceAccountsEnabled": false,
      "publicClient": true,
      "frontchannelLogout": false,
      "protocol": "openid-connect",
      "attributes": {
        "saml.assertion.signature": "false",
        "saml.force.post.binding": "false",
        "saml.multivalued.roles": "false",
        "saml.encrypt": "false",
        "saml_force_name_id_format": "false",
        "saml.client.signature": "false",
        "saml.authnstatement": "false",
        "saml.server.signature": "false",
        "saml.server.signature.keyinfo.ext": "false",
        "saml.onetimeuse.condition": "false"
      },
      "fullScopeAllowed": true,
      "nodeReRegistrationTimeout": -1,
      "protocolMappers": [
        {
          "id": "c244ba46-b6b6-46e2-b272-d67637d65878",
          "name": "username",
          "protocol": "openid-connect",
          "protocolMapper": "oidc-usermodel-property-mapper",
          "consentRequired": true,
          "consentText": "${username}",
          "config": {
            "userinfo.token.claim": "true",
            "user.attribute": "username",
            "id.token.claim": "true",
            "access.token.claim": "true",
            "claim.name": "preferred_username",
            "jsonType.label": "String"
          }
        },
        {
          "id": "e066bd5f-0629-4b18-ae04-fcfd09667cda",
          "name": "full name",
          "protocol": "openid-connect",
          "protocolMapper": "oidc-full-name-mapper",
          "consentRequired": true,
          "consentText": "${fullName}",
          "config": {
            "id.token.claim": "true",
            "access.token.claim": "true"
          }
        },
        {
          "id": "e32b3f5a-ba8d-48e1-a4ba-32fe1800e801",
          "name": "given name",
          "protocol": "openid-connect",
          "protocolMapper": "oidc-usermodel-property-mapper",
          "consentRequired": true,
          "consentText": "${givenName}",
          "config": {
            "userinfo.token.claim": "true",
            "user.attribute": "firstName",
            "id.token.claim": "true",
            "access.token.claim": "true",
            "claim.name": "given_name",
            "jsonType.label": "String"
          }
        },
        {
          "id": "0f97e9c7-9147-477e-af27-bcd7023d3f5d",
          "name": "email",
          "protocol": "openid-connect",
          "protocolMapper": "oidc-usermodel-property-mapper",
          "consentRequired": true,
          "consentText": "${email}",
          "config": {
            "userinfo.token.claim": "true",
            "user.attribute": "email",
            "id.token.claim": "true",
            "access.token.claim": "true",
            "claim.name": "email",
            "jsonType.label": "String"
          }
        },
        {
          "id": "6f9d00b6-4ee8-4a96-802a-f222f0f8ec4b",
          "name": "family name",
          "protocol": "openid-connect",
          "protocolMapper": "oidc-usermodel-property-mapper",
          "consentRequired": true,
          "consentText": "${familyName}",
          "config": {
            "userinfo.token.claim": "true",
            "user.attribute": "lastName",
            "id.token.claim": "true",
            "access.token.claim": "true",
            "claim.name": "family_name",
            "jsonType.label": "String"
          }
        },
        {
          "id": "3af64ba2-2017-4fc7-9548-84197c3b8fce",
          "name": "role list",
          "protocol": "saml",
          "protocolMapper": "saml-role-list-mapper",
          "consentRequired": false,
          "config": {
            "single": "false",
            "attribute.nameformat": "Basic",
            "attribute.name": "Role"
          }
        }
      ],
      "useTemplateConfig": false,
      "useTemplateScope": false,
      "useTemplateMappers": false
    },
    {
      "id": "af32e2fe-dd0d-449b-b554-a0fbaf502120",
      "clientId": "admin-cli",
      "name": "${client_admin-cli}",
      "surrogateAuthRequired": false,
      "enabled": true,
      "clientAuthenticatorType": "client-secret",
      "secret": "**********",
      "redirectUris": [],
      "webOrigins": [],
      "notBefore": 0,
      "bearerOnly": false,
      "consentRequired": false,
      "standardFlowEnabled": false,
      "implicitFlowEnabled": false,
      "directAccessGrantsEnabled": true,
      "serviceAccountsEnabled": false,
      "publicClient": true,
      "frontchannelLogout": false,
      "protocol": "openid-connect",
      "attributes": {},
      "fullScopeAllowed": false,
      "nodeReRegistrationTimeout": 0,
      "protocolMappers": [
        {
          "id": "8de1d2d6-efc3-4c2e-851a-a1374dbe2278",
          "name": "family name",
          "protocol": "openid-connect",
          "protocolMapper": "oidc-usermodel-property-mapper",
          "consentRequired": true,
          "consentText": "${familyName}",
          "config": {
            "userinfo.token.claim": "true",
            "user.attribute": "lastName",
            "id.token.claim": "true",
            "access.token.claim": "true",
            "claim.name": "family_name",
            "jsonType.label": "String"
          }
        },
        {
          "id": "1309caa6-66dd-4d5c-baa1-91b07b364442",
          "name": "username",
          "protocol": "openid-connect",
          "protocolMapper": "oidc-usermodel-property-mapper",
          "consentRequired": true,
          "consentText": "${username}",
          "config": {
            "userinfo.token.claim": "true",
            "user.attribute": "username",
            "id.token.claim": "true",
            "access.token.claim": "true",
            "claim.name": "preferred_username",
            "jsonType.label": "String"
          }
        },
        {
          "id": "6e3aef9a-884c-4a16-9c4f-98703866083e",
          "name": "email",
          "protocol": "openid-connect",
          "protocolMapper": "oidc-usermodel-property-mapper",
          "consentRequired": true,
          "consentText": "${email}",
          "config": {
            "userinfo.token.claim": "true",
            "user.attribute": "email",
            "id.token.claim": "true",
            "access.token.claim": "true",
            "claim.name": "email",
            "jsonType.label": "String"
          }
        },
        {
          "id": "b28a84c7-dd9c-481e-9055-84c365b8b053",
          "name": "role list",
          "protocol": "saml",
          "protocolMapper": "saml-role-list-mapper",
          "consentRequired": false,
          "config": {
            "single": "false",
            "attribute.nameformat": "Basic",
            "attribute.name": "Role"
          }
        },
        {
          "id": "a948178b-d5fe-4177-85a4-349070697e97",
          "name": "full name",
          "protocol": "openid-connect",
          "protocolMapper": "oidc-full-name-mapper",
          "consentRequired": true,
          "consentText": "${fullName}",
          "config": {
            "id.token.claim": "true",
            "access.token.claim": "true"
          }
        },
        {
          "id": "348ac191-b680-436e-84c1-2e1caa18fe86",
          "name": "given name",
          "protocol": "openid-connect",
          "protocolMapper": "oidc-usermodel-property-mapper",
          "consentRequired": true,
          "consentText": "${givenName}",
          "config": {
            "userinfo.token.claim": "true",
            "user.attribute": "firstName",
            "id.token.claim": "true",
            "access.token.claim": "true",
            "claim.name": "given_name",
            "jsonType.label": "String"
          }
        }
      ],
      "useTemplateConfig": false,
      "useTemplateScope": false,
      "useTemplateMappers": false
    },
    {
      "id": "e25865d9-48e6-4253-b52c-0d413e738424",
      "clientId": "broker",
      "name": "${client_broker}",
      "surrogateAuthRequired": false,
      "enabled": true,
      "clientAuthenticatorType": "client-secret",
      "secret": "**********",
      "redirectUris": [],
      "webOrigins": [],
      "notBefore": 0,
      "bearerOnly": false,
      "consentRequired": false,
      "standardFlowEnabled": true,
      "implicitFlowEnabled": false,
      "directAccessGrantsEnabled": false,
      "serviceAccountsEnabled": false,
      "publicClient": false,
      "frontchannelLogout": false,
      "protocol": "openid-connect",
      "attributes": {},
      "fullScopeAllowed": false,
      "nodeReRegistrationTimeout": 0,
      "protocolMappers": [
        {
          "id": "df252b57-8c10-44f9-b1b0-5dc80fb5764e",
          "name": "given name",
          "protocol": "openid-connect",
          "protocolMapper": "oidc-usermodel-property-mapper",
          "consentRequired": true,
          "consentText": "${givenName}",
          "config": {
            "userinfo.token.claim": "true",
            "user.attribute": "firstName",
            "id.token.claim": "true",
            "access.token.claim": "true",
            "claim.name": "given_name",
            "jsonType.label": "String"
          }
        },
        {
          "id": "bf7b5adf-057c-48f8-beb8-c9425c87b036",
          "name": "full name",
          "protocol": "openid-connect",
          "protocolMapper": "oidc-full-name-mapper",
          "consentRequired": true,
          "consentText": "${fullName}",
          "config": {
            "id.token.claim": "true",
            "access.token.claim": "true"
          }
        },
        {
          "id": "21ec4069-8863-458f-9bab-68e200fb8492",
          "name": "family name",
          "protocol": "openid-connect",
          "protocolMapper": "oidc-usermodel-property-mapper",
          "consentRequired": true,
          "consentText": "${familyName}",
          "config": {
            "userinfo.token.claim": "true",
            "user.attribute": "lastName",
            "id.token.claim": "true",
            "access.token.claim": "true",
            "claim.name": "family_name",
            "jsonType.label": "String"
          }
        },
        {
          "id": "e34f0cc5-8244-4947-ba02-c740dd4ce147",
          "name": "username",
          "protocol": "openid-connect",
          "protocolMapper": "oidc-usermodel-property-mapper",
          "consentRequired": true,
          "consentText": "${username}",
          "config": {
            "userinfo.token.claim": "true",
            "user.attribute": "username",
            "id.token.claim": "true",
            "access.token.claim": "true",
            "claim.name": "preferred_username",
            "jsonType.label": "String"
          }
        },
        {
          "id": "d43ac573-4075-4633-8d5d-7e45870c802e",
          "name": "role list",
          "protocol": "saml",
          "protocolMapper": "saml-role-list-mapper",
          "consentRequired": false,
          "config": {
            "single": "false",
            "attribute.nameformat": "Basic",
            "attribute.name": "Role"
          }
        },
        {
          "id": "1902b9d9-0205-4a01-b6eb-7b9ec0ad7bb3",
          "name": "email",
          "protocol": "openid-connect",
          "protocolMapper": "oidc-usermodel-property-mapper",
          "consentRequired": true,
          "consentText": "${email}",
          "config": {
            "userinfo.token.claim": "true",
            "user.attribute": "email",
            "id.token.claim": "true",
            "access.token.claim": "true",
            "claim.name": "email",
            "jsonType.label": "String"
          }
        }
      ],
      "useTemplateConfig": false,
      "useTemplateScope": false,
      "useTemplateMappers": false
    },
    {
      "id": "ed9e801e-7954-481c-90c2-18ca0d1fcaf2",
      "clientId": "realm-management",
      "name": "${client_realm-management}",
      "surrogateAuthRequired": false,
      "enabled": true,
      "clientAuthenticatorType": "client-secret",
      "secret": "**********",
      "redirectUris": [],
      "webOrigins": [],
      "notBefore": 0,
      "bearerOnly": true,
      "consentRequired": false,
      "standardFlowEnabled": true,
      "implicitFlowEnabled": false,
      "directAccessGrantsEnabled": false,
      "serviceAccountsEnabled": false,
      "authorizationServicesEnabled": true,
      "publicClient": false,
      "frontchannelLogout": false,
      "protocol": "openid-connect",
      "attributes": {},
      "fullScopeAllowed": false,
      "nodeReRegistrationTimeout": 0,
      "protocolMappers": [
        {
          "id": "c2c3b595-2a3a-4eb2-9baa-7230b22be285",
          "name": "email",
          "protocol": "openid-connect",
          "protocolMapper": "oidc-usermodel-property-mapper",
          "consentRequired": true,
          "consentText": "${email}",
          "config": {
            "userinfo.token.claim": "true",
            "user.attribute": "email",
            "id.token.claim": "true",
            "access.token.claim": "true",
            "claim.name": "email",
            "jsonType.label": "String"
          }
        },
        {
          "id": "c17e1495-227d-456a-8365-5f3a95675cf1",
          "name": "role list",
          "protocol": "saml",
          "protocolMapper": "saml-role-list-mapper",
          "consentRequired": false,
          "config": {
            "single": "false",
            "attribute.nameformat": "Basic",
            "attribute.name": "Role"
          }
        },
        {
          "id": "e0f5f68a-3b97-48c8-bb3d-01c49f57c869",
          "name": "given name",
          "protocol": "openid-connect",
          "protocolMapper": "oidc-usermodel-property-mapper",
          "consentRequired": true,
          "consentText": "${givenName}",
          "config": {
            "userinfo.token.claim": "true",
            "user.attribute": "firstName",
            "id.token.claim": "true",
            "access.token.claim": "true",
            "claim.name": "given_name",
            "jsonType.label": "String"
          }
        },
        {
          "id": "6613e84b-7d21-4e8e-bdca-f71b27e9f489",
          "name": "family name",
          "protocol": "openid-connect",
          "protocolMapper": "oidc-usermodel-property-mapper",
          "consentRequired": true,
          "consentText": "${familyName}",
          "config": {
            "userinfo.token.claim": "true",
            "user.attribute": "lastName",
            "id.token.claim": "true",
            "access.token.claim": "true",
            "claim.name": "family_name",
            "jsonType.label": "String"
          }
        },
        {
          "id": "39c5b1d1-de14-450d-86f0-ac8f874c44f5",
          "name": "full name",
          "protocol": "openid-connect",
          "protocolMapper": "oidc-full-name-mapper",
          "consentRequired": true,
          "consentText": "${fullName}",
          "config": {
            "id.token.claim": "true",
            "access.token.claim": "true"
          }
        },
        {
          "id": "fd223fc8-5401-4080-9f4b-bde453acebe0",
          "name": "username",
          "protocol": "openid-connect",
          "protocolMapper": "oidc-usermodel-property-mapper",
          "consentRequired": true,
          "consentText": "${username}",
          "config": {
            "userinfo.token.claim": "true",
            "user.attribute": "username",
            "id.token.claim": "true",
            "access.token.claim": "true",
            "claim.name": "preferred_username",
            "jsonType.label": "String"
          }
        }
      ],
      "useTemplateConfig": false,
      "useTemplateScope": false,
      "useTemplateMappers": false,
      "authorizationSettings": {
        "allowRemoteResourceManagement": false,
        "policyEnforcementMode": "ENFORCING",
        "resources": [
          {
            "name": "group.resource.e344dafe-b879-4e03-a952-123ce685c4a6",
            "scopes": [
              {
                "name": "manage-members"
              },
              {
                "name": "view"
              },
              {
                "name": "manage-membership"
              },
              {
                "name": "view-members"
              },
              {
                "name": "manage"
              }
            ]
          },
          {
            "name": "client.resource.91aa89ac-1b80-4888-87ba-abecde395114",
            "type": "Client",
            "scopes": [
              {
                "name": "view"
              },
              {
                "name": "map-roles-client-scope"
              },
              {
                "name": "configure"
              },
              {
                "name": "map-roles"
              },
              {
                "name": "manage"
              },
              {
                "name": "token-exchange"
              },
              {
                "name": "map-roles-composite"
              }
            ]
          },
          {
            "name": "role.resource.548c04f4-9953-4f37-be19-2def2b8c9e0e",
            "type": "Role",
            "scopes": [
              {
                "name": "map-role-composite"
              },
              {
                "name": "map-role-client-scope"
              },
              {
                "name": "map-role"
              }
            ]
          }
        ],
        "policies": [
          {
            "name": "map-role.permission.548c04f4-9953-4f37-be19-2def2b8c9e0e",
            "type": "scope",
            "logic": "POSITIVE",
            "decisionStrategy": "AFFIRMATIVE",
            "config": {
              "resources": "[\"role.resource.548c04f4-9953-4f37-be19-2def2b8c9e0e\"]",
              "scopes": "[\"map-role\"]"
            }
          },
          {
            "name": "map-role-client-scope.permission.548c04f4-9953-4f37-be19-2def2b8c9e0e",
            "type": "scope",
            "logic": "POSITIVE",
            "decisionStrategy": "AFFIRMATIVE",
            "config": {
              "resources": "[\"role.resource.548c04f4-9953-4f37-be19-2def2b8c9e0e\"]",
              "scopes": "[\"map-role-client-scope\"]"
            }
          },
          {
            "name": "map-role-composite.permission.548c04f4-9953-4f37-be19-2def2b8c9e0e",
            "type": "scope",
            "logic": "POSITIVE",
            "decisionStrategy": "AFFIRMATIVE",
            "config": {
              "resources": "[\"role.resource.548c04f4-9953-4f37-be19-2def2b8c9e0e\"]",
              "scopes": "[\"map-role-composite\"]"
            }
          },
          {
            "name": "manage.permission.client.91aa89ac-1b80-4888-87ba-abecde395114",
            "type": "scope",
            "logic": "POSITIVE",
            "decisionStrategy": "UNANIMOUS",
            "config": {
              "resources": "[\"client.resource.91aa89ac-1b80-4888-87ba-abecde395114\"]",
              "scopes": "[\"manage\"]"
            }
          },
          {
            "name": "configure.permission.client.91aa89ac-1b80-4888-87ba-abecde395114",
            "type": "scope",
            "logic": "POSITIVE",
            "decisionStrategy": "UNANIMOUS",
            "config": {
              "resources": "[\"client.resource.91aa89ac-1b80-4888-87ba-abecde395114\"]",
              "scopes": "[\"configure\"]"
            }
          },
          {
            "name": "view.permission.client.91aa89ac-1b80-4888-87ba-abecde395114",
            "type": "scope",
            "logic": "POSITIVE",
            "decisionStrategy": "UNANIMOUS",
            "config": {
              "resources": "[\"client.resource.91aa89ac-1b80-4888-87ba-abecde395114\"]",
              "scopes": "[\"view\"]"
            }
          },
          {
            "name": "map-roles.permission.client.91aa89ac-1b80-4888-87ba-abecde395114",
            "type": "scope",
            "logic": "POSITIVE",
            "decisionStrategy": "UNANIMOUS",
            "config": {
              "resources": "[\"client.resource.91aa89ac-1b80-4888-87ba-abecde395114\"]",
              "scopes": "[\"map-roles\"]"
            }
          },
          {
            "name": "map-roles-client-scope.permission.client.91aa89ac-1b80-4888-87ba-abecde395114",
            "type": "scope",
            "logic": "POSITIVE",
            "decisionStrategy": "UNANIMOUS",
            "config": {
              "resources": "[\"client.resource.91aa89ac-1b80-4888-87ba-abecde395114\"]",
              "scopes": "[\"map-roles-client-scope\"]"
            }
          },
          {
            "name": "map-roles-composite.permission.client.91aa89ac-1b80-4888-87ba-abecde395114",
            "type": "scope",
            "logic": "POSITIVE",
            "decisionStrategy": "UNANIMOUS",
            "config": {
              "resources": "[\"client.resource.91aa89ac-1b80-4888-87ba-abecde395114\"]",
              "scopes": "[\"map-roles-composite\"]"
            }
          },
          {
            "name": "token-exchange.permission.client.91aa89ac-1b80-4888-87ba-abecde395114",
            "type": "scope",
            "logic": "POSITIVE",
            "decisionStrategy": "UNANIMOUS",
            "config": {
              "resources": "[\"client.resource.91aa89ac-1b80-4888-87ba-abecde395114\"]",
              "scopes": "[\"token-exchange\"]"
            }
          },
          {
            "name": "manage.permission.group.e344dafe-b879-4e03-a952-123ce685c4a6",
            "type": "scope",
            "logic": "POSITIVE",
            "decisionStrategy": "UNANIMOUS",
            "config": {
              "resources": "[\"group.resource.e344dafe-b879-4e03-a952-123ce685c4a6\"]",
              "scopes": "[\"manage\"]"
            }
          },
          {
            "name": "view.permission.group.e344dafe-b879-4e03-a952-123ce685c4a6",
            "type": "scope",
            "logic": "POSITIVE",
            "decisionStrategy": "UNANIMOUS",
            "config": {
              "resources": "[\"group.resource.e344dafe-b879-4e03-a952-123ce685c4a6\"]",
              "scopes": "[\"view\"]"
            }
          },
          {
            "name": "manage.members.permission.group.e344dafe-b879-4e03-a952-123ce685c4a6",
            "type": "scope",
            "logic": "POSITIVE",
            "decisionStrategy": "UNANIMOUS",
            "config": {
              "resources": "[\"group.resource.e344dafe-b879-4e03-a952-123ce685c4a6\"]",
              "scopes": "[\"manage-members\"]"
            }
          },
          {
            "name": "view.members.permission.group.e344dafe-b879-4e03-a952-123ce685c4a6",
            "type": "scope",
            "logic": "POSITIVE",
            "decisionStrategy": "UNANIMOUS",
            "config": {
              "resources": "[\"group.resource.e344dafe-b879-4e03-a952-123ce685c4a6\"]",
              "scopes": "[\"view-members\"]"
            }
          },
          {
            "name": "manage.membership.permission.group.e344dafe-b879-4e03-a952-123ce685c4a6",
            "type": "scope",
            "logic": "POSITIVE",
            "decisionStrategy": "UNANIMOUS",
            "config": {
              "resources": "[\"group.resource.e344dafe-b879-4e03-a952-123ce685c4a6\"]",
              "scopes": "[\"manage-membership\"]"
            }
          }
        ],
        "scopes": [
          {
            "name": "manage-membership"
          },
          {
            "name": "view-members"
          },
          {
            "name": "manage-members"
          },
          {
            "name": "manage-group-membership"
          },
          {
            "name": "user-impersonated"
          },
          {
            "name": "impersonate"
          },
          {
            "name": "token-exchange"
          },
          {
            "name": "configure"
          },
          {
            "name": "map-roles-composite"
          },
          {
            "name": "map-roles-client-scope"
          },
          {
            "name": "map-roles"
          },
          {
            "name": "view"
          },
          {
            "name": "manage"
          },
          {
            "name": "map-role-composite"
          },
          {
            "name": "map-role-client-scope"
          },
          {
            "name": "map-role"
          }
        ]
      }
    },
    {
      "id": "41b9e303-4e85-41ae-9580-9c33e4c98cd3",
      "clientId": "account",
      "name": "${client_account}",
      "baseUrl": "/auth/realms/Saga/account",
      "surrogateAuthRequired": false,
      "enabled": true,
      "clientAuthenticatorType": "client-secret",
      "secret": "**********",
      "defaultRoles": [
        "view-profile",
        "manage-account"
      ],
      "redirectUris": [
        "/auth/realms/Saga/account/*"
      ],
      "webOrigins": [],
      "notBefore": 0,
      "bearerOnly": false,
      "consentRequired": false,
      "standardFlowEnabled": true,
      "implicitFlowEnabled": false,
      "directAccessGrantsEnabled": false,
      "serviceAccountsEnabled": true,
      "publicClient": false,
      "frontchannelLogout": false,
      "protocol": "openid-connect",
      "attributes": {
        "saml.assertion.signature": "false",
        "saml.force.post.binding": "false",
        "saml.multivalued.roles": "false",
        "saml.encrypt": "false",
        "saml_force_name_id_format": "false",
        "saml.client.signature": "false",
        "saml.authnstatement": "false",
        "saml.server.signature": "false",
        "saml.server.signature.keyinfo.ext": "false",
        "saml.onetimeuse.condition": "false"
      },
      "fullScopeAllowed": false,
      "nodeReRegistrationTimeout": 0,
      "protocolMappers": [
        {
          "id": "1b3bff8f-6ad1-41ff-a0f5-2969093129ae",
          "name": "username",
          "protocol": "openid-connect",
          "protocolMapper": "oidc-usermodel-property-mapper",
          "consentRequired": true,
          "consentText": "${username}",
          "config": {
            "userinfo.token.claim": "true",
            "user.attribute": "username",
            "id.token.claim": "true",
            "access.token.claim": "true",
            "claim.name": "preferred_username",
            "jsonType.label": "String"
          }
        },
        {
          "id": "03749f74-fd6a-46b6-a2d6-5c95365155b4",
          "name": "role list",
          "protocol": "saml",
          "protocolMapper": "saml-role-list-mapper",
          "consentRequired": false,
          "config": {
            "single": "false",
            "attribute.nameformat": "Basic",
            "attribute.name": "Role"
          }
        },
        {
          "id": "e693253d-dc83-4400-91a7-4e64d0d742d6",
          "name": "full name",
          "protocol": "openid-connect",
          "protocolMapper": "oidc-full-name-mapper",
          "consentRequired": true,
          "consentText": "${fullName}",
          "config": {
            "id.token.claim": "true",
            "access.token.claim": "true"
          }
        },
        {
          "id": "6f17fcb4-8504-46f3-ae85-0d5b7ea276d9",
          "name": "Client IP Address",
          "protocol": "openid-connect",
          "protocolMapper": "oidc-usersessionmodel-note-mapper",
          "consentRequired": false,
          "consentText": "",
          "config": {
            "user.session.note": "clientAddress",
            "id.token.claim": "true",
            "access.token.claim": "true",
            "claim.name": "clientAddress",
            "jsonType.label": "String"
          }
        },
        {
          "id": "51cb9275-19f6-409d-983e-db19590cfe75",
          "name": "email",
          "protocol": "openid-connect",
          "protocolMapper": "oidc-usermodel-property-mapper",
          "consentRequired": true,
          "consentText": "${email}",
          "config": {
            "userinfo.token.claim": "true",
            "user.attribute": "email",
            "id.token.claim": "true",
            "access.token.claim": "true",
            "claim.name": "email",
            "jsonType.label": "String"
          }
        },
        {
          "id": "3e0b358c-611e-4a5e-9f48-46f5ab9a5a6c",
          "name": "Client Host",
          "protocol": "openid-connect",
          "protocolMapper": "oidc-usersessionmodel-note-mapper",
          "consentRequired": false,
          "consentText": "",
          "config": {
            "user.session.note": "clientHost",
            "id.token.claim": "true",
            "access.token.claim": "true",
            "claim.name": "clientHost",
            "jsonType.label": "String"
          }
        },
        {
          "id": "73563de1-4cc6-4afb-a535-b4e9133d2631",
          "name": "family name",
          "protocol": "openid-connect",
          "protocolMapper": "oidc-usermodel-property-mapper",
          "consentRequired": true,
          "consentText": "${familyName}",
          "config": {
            "userinfo.token.claim": "true",
            "user.attribute": "lastName",
            "id.token.claim": "true",
            "access.token.claim": "true",
            "claim.name": "family_name",
            "jsonType.label": "String"
          }
        },
        {
          "id": "d5a105c2-e1ab-4e7b-b0b1-0c19974b5791",
          "name": "Client ID",
          "protocol": "openid-connect",
          "protocolMapper": "oidc-usersessionmodel-note-mapper",
          "consentRequired": false,
          "consentText": "",
          "config": {
            "user.session.note": "clientId",
            "id.token.claim": "true",
            "access.token.claim": "true",
            "claim.name": "clientId",
            "jsonType.label": "String"
          }
        },
        {
          "id": "f3528af8-3c18-4bc9-a459-a5efe92ccfab",
          "name": "given name",
          "protocol": "openid-connect",
          "protocolMapper": "oidc-usermodel-property-mapper",
          "consentRequired": true,
          "consentText": "${givenName}",
          "config": {
            "userinfo.token.claim": "true",
            "user.attribute": "firstName",
            "id.token.claim": "true",
            "access.token.claim": "true",
            "claim.name": "given_name",
            "jsonType.label": "String"
          }
        }
      ],
      "useTemplateConfig": false,
      "useTemplateScope": false,
      "useTemplateMappers": false
    },
    {
      "id": "b69d1da9-4818-414f-a933-40182cf492fb",
      "clientId": "saga",
      "surrogateAuthRequired": false,
      "enabled": true,
      "clientAuthenticatorType": "client-secret",
      "secret": "**********",
      "redirectUris": [
        "http://localhost:9000/*"
      ],
      "webOrigins": [],
      "notBefore": 0,
      "bearerOnly": false,
      "consentRequired": false,
      "standardFlowEnabled": true,
      "implicitFlowEnabled": false,
      "directAccessGrantsEnabled": true,
      "serviceAccountsEnabled": true,
      "authorizationServicesEnabled": true,
      "publicClient": false,
      "frontchannelLogout": false,
      "protocol": "openid-connect",
      "attributes": {
        "saml.assertion.signature": "false",
        "saml.multivalued.roles": "false",
        "saml.force.post.binding": "false",
        "saml.encrypt": "false",
        "saml_force_name_id_format": "false",
        "saml.client.signature": "false",
        "saml.authnstatement": "false",
        "saml.server.signature": "false",
        "saml.server.signature.keyinfo.ext": "false",
        "saml.onetimeuse.condition": "false"
      },
      "fullScopeAllowed": true,
      "nodeReRegistrationTimeout": -1,
      "protocolMappers": [
        {
          "id": "25bd2f27-ac97-43ff-958a-19e1dc18b1c2",
          "name": "full name",
          "protocol": "openid-connect",
          "protocolMapper": "oidc-full-name-mapper",
          "consentRequired": true,
          "consentText": "${fullName}",
          "config": {
            "id.token.claim": "true",
            "access.token.claim": "true"
          }
        },
        {
          "id": "ccc061b6-1163-48de-8645-343d2c30827b",
          "name": "given name",
          "protocol": "openid-connect",
          "protocolMapper": "oidc-usermodel-property-mapper",
          "consentRequired": true,
          "consentText": "${givenName}",
          "config": {
            "userinfo.token.claim": "true",
            "user.attribute": "firstName",
            "id.token.claim": "true",
            "access.token.claim": "true",
            "claim.name": "given_name",
            "jsonType.label": "String"
          }
        },
        {
          "id": "066dbd6d-6e35-485e-96e5-e39ceab59e97",
          "name": "Client ID",
          "protocol": "openid-connect",
          "protocolMapper": "oidc-usersessionmodel-note-mapper",
          "consentRequired": false,
          "consentText": "",
          "config": {
            "user.session.note": "clientId",
            "id.token.claim": "true",
            "access.token.claim": "true",
            "claim.name": "clientId",
            "jsonType.label": "String"
          }
        },
        {
          "id": "e0fa4dd0-0640-4407-ab3e-2afcfde1f125",
          "name": "Client Host",
          "protocol": "openid-connect",
          "protocolMapper": "oidc-usersessionmodel-note-mapper",
          "consentRequired": false,
          "consentText": "",
          "config": {
            "user.session.note": "clientHost",
            "id.token.claim": "true",
            "access.token.claim": "true",
            "claim.name": "clientHost",
            "jsonType.label": "String"
          }
        },
        {
          "id": "2ada7564-b07a-4254-b925-9f2d384ecd28",
          "name": "role list",
          "protocol": "saml",
          "protocolMapper": "saml-role-list-mapper",
          "consentRequired": false,
          "config": {
            "single": "false",
            "attribute.nameformat": "Basic",
            "attribute.name": "Role"
          }
        },
        {
          "id": "8fde17b8-ceea-4728-b34f-2e239a77b2c9",
          "name": "email",
          "protocol": "openid-connect",
          "protocolMapper": "oidc-usermodel-property-mapper",
          "consentRequired": true,
          "consentText": "${email}",
          "config": {
            "userinfo.token.claim": "true",
            "user.attribute": "email",
            "id.token.claim": "true",
            "access.token.claim": "true",
            "claim.name": "email",
            "jsonType.label": "String"
          }
        },
        {
          "id": "1c0fbcc6-d79e-494b-b353-dac290d64240",
          "name": "family name",
          "protocol": "openid-connect",
          "protocolMapper": "oidc-usermodel-property-mapper",
          "consentRequired": true,
          "consentText": "${familyName}",
          "config": {
            "userinfo.token.claim": "true",
            "user.attribute": "lastName",
            "id.token.claim": "true",
            "access.token.claim": "true",
            "claim.name": "family_name",
            "jsonType.label": "String"
          }
        },
        {
          "id": "47d744f2-06cd-4b01-a54f-3050fa8cb4aa",
          "name": "Client IP Address",
          "protocol": "openid-connect",
          "protocolMapper": "oidc-usersessionmodel-note-mapper",
          "consentRequired": false,
          "consentText": "",
          "config": {
            "user.session.note": "clientAddress",
            "id.token.claim": "true",
            "access.token.claim": "true",
            "claim.name": "clientAddress",
            "jsonType.label": "String"
          }
        },
        {
          "id": "88e50071-31e6-47bd-bd46-df0020046200",
          "name": "username",
          "protocol": "openid-connect",
          "protocolMapper": "oidc-usermodel-property-mapper",
          "consentRequired": true,
          "consentText": "${username}",
          "config": {
            "userinfo.token.claim": "true",
            "user.attribute": "username",
            "id.token.claim": "true",
            "access.token.claim": "true",
            "claim.name": "preferred_username",
            "jsonType.label": "String"
          }
        }
      ],
      "useTemplateConfig": false,
      "useTemplateScope": false,
      "useTemplateMappers": false,
      "authorizationSettings": {
        "allowRemoteResourceManagement": false,
        "policyEnforcementMode": "ENFORCING",
        "resources": [
          {
            "name": "CA",
            "uri": "/ca"
          },
          {
            "name": "Default Resource",
            "uri": "/*",
            "type": "urn:saga:resources:default"
          }
        ],
        "policies": [
          {
            "name": "Default Policy",
            "description": "A policy that grants access only for users within this realm",
            "type": "js",
            "logic": "POSITIVE",
            "decisionStrategy": "AFFIRMATIVE",
            "config": {
              "code": "// by default, grants any permission associated with this policy\n$evaluation.grant();\n"
            }
          },
          {
            "name": "xin cap CA",
            "type": "role",
            "logic": "POSITIVE",
            "decisionStrategy": "UNANIMOUS",
            "config": {
              "roles": "[{\"id\":\"lvl3\",\"required\":false}]"
            }
          },
          {
            "name": "Default Permission",
            "description": "A permission that applies to the default resource type",
            "type": "resource",
            "logic": "POSITIVE",
            "decisionStrategy": "UNANIMOUS",
            "config": {
              "defaultResourceType": "urn:saga:resources:default",
              "applyPolicies": "[\"Default Policy\"]"
            }
          },
          {
            "name": "xin cap",
            "type": "resource",
            "logic": "POSITIVE",
            "decisionStrategy": "UNANIMOUS",
            "config": {
              "resources": "[\"CA\"]",
              "applyPolicies": "[\"xin cap CA\"]"
            }
          }
        ],
        "scopes": []
      }
    },
    {
      "id": "b2f1b03f-ba33-4d57-ae69-d3c58ea5bbe0",
      "clientId": "nodejs",
      "surrogateAuthRequired": false,
      "enabled": true,
      "clientAuthenticatorType": "client-secret",
      "secret": "**********",
      "redirectUris": [
        "http://localhost/*"
      ],
      "webOrigins": [],
      "notBefore": 0,
      "bearerOnly": false,
      "consentRequired": false,
      "standardFlowEnabled": true,
      "implicitFlowEnabled": false,
      "directAccessGrantsEnabled": true,
      "serviceAccountsEnabled": false,
      "publicClient": true,
      "frontchannelLogout": false,
      "protocol": "openid-connect",
      "attributes": {
        "saml.assertion.signature": "false",
        "saml.force.post.binding": "false",
        "saml.multivalued.roles": "false",
        "saml.encrypt": "false",
        "saml_force_name_id_format": "false",
        "saml.client.signature": "false",
        "saml.authnstatement": "false",
        "saml.server.signature": "false",
        "saml.server.signature.keyinfo.ext": "false",
        "saml.onetimeuse.condition": "false"
      },
      "fullScopeAllowed": true,
      "nodeReRegistrationTimeout": -1,
      "protocolMappers": [
        {
          "id": "f69e4a5a-2be6-4abf-8cda-9bd639fcd532",
          "name": "email",
          "protocol": "openid-connect",
          "protocolMapper": "oidc-usermodel-property-mapper",
          "consentRequired": true,
          "consentText": "${email}",
          "config": {
            "userinfo.token.claim": "true",
            "user.attribute": "email",
            "id.token.claim": "true",
            "access.token.claim": "true",
            "claim.name": "email",
            "jsonType.label": "String"
          }
        },
        {
          "id": "207ad8e8-1d5d-4069-8756-6582ac5ef21e",
          "name": "username",
          "protocol": "openid-connect",
          "protocolMapper": "oidc-usermodel-property-mapper",
          "consentRequired": true,
          "consentText": "${username}",
          "config": {
            "userinfo.token.claim": "true",
            "user.attribute": "username",
            "id.token.claim": "true",
            "access.token.claim": "true",
            "claim.name": "preferred_username",
            "jsonType.label": "String"
          }
        },
        {
          "id": "3cd2468c-77cf-498c-8a58-9bcc81cd5fc6",
          "name": "family name",
          "protocol": "openid-connect",
          "protocolMapper": "oidc-usermodel-property-mapper",
          "consentRequired": true,
          "consentText": "${familyName}",
          "config": {
            "userinfo.token.claim": "true",
            "user.attribute": "lastName",
            "id.token.claim": "true",
            "access.token.claim": "true",
            "claim.name": "family_name",
            "jsonType.label": "String"
          }
        },
        {
          "id": "ea524f54-f8da-4ebe-9ed4-72daae62995a",
          "name": "full name",
          "protocol": "openid-connect",
          "protocolMapper": "oidc-full-name-mapper",
          "consentRequired": true,
          "consentText": "${fullName}",
          "config": {
            "id.token.claim": "true",
            "access.token.claim": "true"
          }
        },
        {
          "id": "9126c162-1dbe-4a59-9a28-88df33a0fbb4",
          "name": "role list",
          "protocol": "saml",
          "protocolMapper": "saml-role-list-mapper",
          "consentRequired": false,
          "config": {
            "single": "false",
            "attribute.nameformat": "Basic",
            "attribute.name": "Role"
          }
        },
        {
          "id": "4423b7dc-d7ee-463c-91f3-d21d301bf58d",
          "name": "given name",
          "protocol": "openid-connect",
          "protocolMapper": "oidc-usermodel-property-mapper",
          "consentRequired": true,
          "consentText": "${givenName}",
          "config": {
            "userinfo.token.claim": "true",
            "user.attribute": "firstName",
            "id.token.claim": "true",
            "access.token.claim": "true",
            "claim.name": "given_name",
            "jsonType.label": "String"
          }
        }
      ],
      "useTemplateConfig": false,
      "useTemplateScope": false,
      "useTemplateMappers": false
    },
    {
      "id": "baec66d9-0240-48ef-84b1-517a97879542",
      "clientId": "security-admin-console",
      "name": "${client_security-admin-console}",
      "baseUrl": "/auth/admin/Saga/console/index.html",
      "surrogateAuthRequired": false,
      "enabled": true,
      "clientAuthenticatorType": "client-secret",
      "secret": "**********",
      "redirectUris": [
        "/auth/admin/Saga/console/*"
      ],
      "webOrigins": [],
      "notBefore": 0,
      "bearerOnly": false,
      "consentRequired": false,
      "standardFlowEnabled": true,
      "implicitFlowEnabled": false,
      "directAccessGrantsEnabled": false,
      "serviceAccountsEnabled": false,
      "publicClient": true,
      "frontchannelLogout": false,
      "protocol": "openid-connect",
      "attributes": {},
      "fullScopeAllowed": false,
      "nodeReRegistrationTimeout": 0,
      "protocolMappers": [
        {
          "id": "a68590fe-847a-48f5-a074-08f10d51412a",
          "name": "full name",
          "protocol": "openid-connect",
          "protocolMapper": "oidc-full-name-mapper",
          "consentRequired": true,
          "consentText": "${fullName}",
          "config": {
            "id.token.claim": "true",
            "access.token.claim": "true"
          }
        },
        {
          "id": "0222ca61-0324-4a77-913c-91c2c5bf560e",
          "name": "given name",
          "protocol": "openid-connect",
          "protocolMapper": "oidc-usermodel-property-mapper",
          "consentRequired": true,
          "consentText": "${givenName}",
          "config": {
            "userinfo.token.claim": "true",
            "user.attribute": "firstName",
            "id.token.claim": "true",
            "access.token.claim": "true",
            "claim.name": "given_name",
            "jsonType.label": "String"
          }
        },
        {
          "id": "022e8def-37af-4896-9a19-9e4a2386ec72",
          "name": "locale",
          "protocol": "openid-connect",
          "protocolMapper": "oidc-usermodel-attribute-mapper",
          "consentRequired": false,
          "consentText": "${locale}",
          "config": {
            "userinfo.token.claim": "true",
            "user.attribute": "locale",
            "id.token.claim": "true",
            "access.token.claim": "true",
            "claim.name": "locale",
            "jsonType.label": "String"
          }
        },
        {
          "id": "0acaf156-220f-4361-b3b9-e036bab5fe16",
          "name": "family name",
          "protocol": "openid-connect",
          "protocolMapper": "oidc-usermodel-property-mapper",
          "consentRequired": true,
          "consentText": "${familyName}",
          "config": {
            "userinfo.token.claim": "true",
            "user.attribute": "lastName",
            "id.token.claim": "true",
            "access.token.claim": "true",
            "claim.name": "family_name",
            "jsonType.label": "String"
          }
        },
        {
          "id": "f0f14c59-7f8b-4381-94b3-ea1c32d8a572",
          "name": "email",
          "protocol": "openid-connect",
          "protocolMapper": "oidc-usermodel-property-mapper",
          "consentRequired": true,
          "consentText": "${email}",
          "config": {
            "userinfo.token.claim": "true",
            "user.attribute": "email",
            "id.token.claim": "true",
            "access.token.claim": "true",
            "claim.name": "email",
            "jsonType.label": "String"
          }
        },
        {
          "id": "95176c08-b18c-44ae-be36-b11b49c50726",
          "name": "username",
          "protocol": "openid-connect",
          "protocolMapper": "oidc-usermodel-property-mapper",
          "consentRequired": true,
          "consentText": "${username}",
          "config": {
            "userinfo.token.claim": "true",
            "user.attribute": "username",
            "id.token.claim": "true",
            "access.token.claim": "true",
            "claim.name": "preferred_username",
            "jsonType.label": "String"
          }
        },
        {
          "id": "1a29c32b-b07d-438e-a302-cf6f53873f52",
          "name": "role list",
          "protocol": "saml",
          "protocolMapper": "saml-role-list-mapper",
          "consentRequired": false,
          "config": {
            "single": "false",
            "attribute.nameformat": "Basic",
            "attribute.name": "Role"
          }
        }
      ],
      "useTemplateConfig": false,
      "useTemplateScope": false,
      "useTemplateMappers": false
    }
  ],
  "clientTemplates": [],
  "browserSecurityHeaders": {
    "xContentTypeOptions": "nosniff",
    "xRobotsTag": "none",
    "xFrameOptions": "SAMEORIGIN",
    "xXSSProtection": "1; mode=block",
    "contentSecurityPolicy": "frame-src 'self'; frame-ancestors 'self'; object-src 'none';",
    "strictTransportSecurity": "max-age=31536000; includeSubDomains"
  },
  "smtpServer": {},
  "eventsEnabled": false,
  "eventsListeners": [
    "jboss-logging"
  ],
  "enabledEventTypes": [],
  "adminEventsEnabled": false,
  "adminEventsDetailsEnabled": false,
  "identityProviders": [
    {
      "alias": "google",
      "internalId": "86b27ddf-2782-4e10-b7da-54cf5ac78ae7",
      "providerId": "google",
      "enabled": true,
      "updateProfileFirstLoginMode": "on",
      "trustEmail": false,
      "storeToken": false,
      "addReadTokenRoleOnCreate": false,
      "authenticateByDefault": false,
      "linkOnly": false,
      "firstBrokerLoginFlowAlias": "first broker login",
      "config": {
        "hideOnLoginPage": "",
        "clientId": "327810969391-2ukjt5u8a0kfdoq8k269t060i00n4b0g.apps.googleusercontent.com",
        "disableUserInfo": "false",
        "userIp": "",
        "clientSecret": "**********",
        "useJwksUrl": "true"
      }
    },
    {
      "alias": "facebook",
      "internalId": "ec479135-cbbf-4641-b8c0-4155129985e4",
      "providerId": "facebook",
      "enabled": true,
      "updateProfileFirstLoginMode": "on",
      "trustEmail": false,
      "storeToken": false,
      "addReadTokenRoleOnCreate": false,
      "authenticateByDefault": false,
      "linkOnly": false,
      "firstBrokerLoginFlowAlias": "first broker login",
      "config": {
        "hideOnLoginPage": "",
        "clientSecret": "**********",
        "clientId": "173392213495704",
        "disableUserInfo": "",
        "useJwksUrl": "true"
      }
    }
  ],
  "components": {
    "org.keycloak.services.clientregistration.policy.ClientRegistrationPolicy": [
      {
        "id": "666a8b4d-a25f-40db-b846-bd5cab916f84",
        "name": "Allowed Protocol Mapper Types",
        "providerId": "allowed-protocol-mappers",
        "subType": "anonymous",
        "subComponents": {},
        "config": {
          "allowed-protocol-mapper-types": [
            "saml-user-property-mapper",
            "oidc-address-mapper",
            "saml-role-list-mapper",
            "oidc-usermodel-property-mapper",
            "oidc-usermodel-attribute-mapper",
            "oidc-full-name-mapper",
            "saml-user-attribute-mapper",
            "oidc-sha256-pairwise-sub-mapper"
          ],
          "consent-required-for-all-mappers": [
            "true"
          ]
        }
      },
      {
        "id": "0659c30e-2803-4619-b6c9-3a4919d89c35",
        "name": "Full Scope Disabled",
        "providerId": "scope",
        "subType": "anonymous",
        "subComponents": {},
        "config": {}
      },
      {
        "id": "ecbc2e0e-a44a-40e8-89f0-5ede82e06d52",
        "name": "Allowed Client Templates",
        "providerId": "allowed-client-templates",
        "subType": "authenticated",
        "subComponents": {},
        "config": {}
      },
      {
        "id": "8a37a56a-33e1-427b-94c6-f561c5e44955",
        "name": "Allowed Client Templates",
        "providerId": "allowed-client-templates",
        "subType": "anonymous",
        "subComponents": {},
        "config": {}
      },
      {
        "id": "a69ced18-9415-451a-b58e-7eab3e9d84f6",
        "name": "Consent Required",
        "providerId": "consent-required",
        "subType": "anonymous",
        "subComponents": {},
        "config": {}
      },
      {
        "id": "d19e4341-e4ac-4341-84ba-4fc736e61baf",
        "name": "Allowed Protocol Mapper Types",
        "providerId": "allowed-protocol-mappers",
        "subType": "authenticated",
        "subComponents": {},
        "config": {
          "allowed-protocol-mapper-types": [
            "saml-user-property-mapper",
            "oidc-address-mapper",
            "oidc-sha256-pairwise-sub-mapper",
            "oidc-usermodel-attribute-mapper",
            "oidc-usermodel-property-mapper",
            "oidc-full-name-mapper",
            "saml-user-attribute-mapper",
            "saml-role-list-mapper"
          ],
          "consent-required-for-all-mappers": [
            "true"
          ]
        }
      },
      {
        "id": "f0d86298-6ec8-4a51-98be-c364243ef6d4",
        "name": "Max Clients Limit",
        "providerId": "max-clients",
        "subType": "anonymous",
        "subComponents": {},
        "config": {
          "max-clients": [
            "200"
          ]
        }
      },
      {
        "id": "928a0a4f-075e-4556-be4b-cd61b5dd87ea",
        "name": "Trusted Hosts",
        "providerId": "trusted-hosts",
        "subType": "anonymous",
        "subComponents": {},
        "config": {
          "host-sending-registration-request-must-match": [
            "true"
          ],
          "client-uris-must-match": [
            "true"
          ]
        }
      }
    ],
    "org.keycloak.keys.KeyProvider": [
      {
        "id": "9acfc031-5f5f-4d9e-a824-faa23fd0b153",
        "name": "rsa-generated",
        "providerId": "rsa-generated",
        "subComponents": {},
        "config": {
          "priority": [
            "100"
          ]
        }
      },
      {
        "id": "fd3b9c80-196d-43d9-8c2d-d2b53d54b36d",
        "name": "aes-generated",
        "providerId": "aes-generated",
        "subComponents": {},
        "config": {
          "priority": [
            "100"
          ]
        }
      },
      {
        "id": "d2601de0-0a33-4567-bf59-b9af1cb93ca7",
        "name": "hmac-generated",
        "providerId": "hmac-generated",
        "subComponents": {},
        "config": {
          "priority": [
            "100"
          ]
        }
      }
    ]
  },
  "internationalizationEnabled": false,
  "supportedLocales": [],
  "authenticationFlows": [
    {
      "id": "ba8f2ec9-f37d-486c-8caf-5601dc71f744",
      "alias": "Handle Existing Account",
      "description": "Handle what to do if there is existing account with same email/username like authenticated identity provider",
      "providerId": "basic-flow",
      "topLevel": false,
      "builtIn": true,
      "authenticationExecutions": [
        {
          "authenticator": "idp-confirm-link",
          "requirement": "REQUIRED",
          "priority": 10,
          "userSetupAllowed": false,
          "autheticatorFlow": false
        },
        {
          "authenticator": "idp-email-verification",
          "requirement": "ALTERNATIVE",
          "priority": 20,
          "userSetupAllowed": false,
          "autheticatorFlow": false
        },
        {
          "requirement": "ALTERNATIVE",
          "priority": 30,
          "flowAlias": "Verify Existing Account by Re-authentication",
          "userSetupAllowed": false,
          "autheticatorFlow": true
        }
      ]
    },
    {
      "id": "02132b38-8a47-4484-b36a-56bccfa9656f",
      "alias": "Verify Existing Account by Re-authentication",
      "description": "Reauthentication of existing account",
      "providerId": "basic-flow",
      "topLevel": false,
      "builtIn": true,
      "authenticationExecutions": [
        {
          "authenticator": "idp-username-password-form",
          "requirement": "REQUIRED",
          "priority": 10,
          "userSetupAllowed": false,
          "autheticatorFlow": false
        },
        {
          "authenticator": "auth-otp-form",
          "requirement": "OPTIONAL",
          "priority": 20,
          "userSetupAllowed": false,
          "autheticatorFlow": false
        }
      ]
    },
    {
      "id": "badc84e5-5f17-4679-a905-9700b7cfa81c",
      "alias": "browser",
      "description": "browser based authentication",
      "providerId": "basic-flow",
      "topLevel": true,
      "builtIn": true,
      "authenticationExecutions": [
        {
          "authenticator": "auth-cookie",
          "requirement": "ALTERNATIVE",
          "priority": 10,
          "userSetupAllowed": false,
          "autheticatorFlow": false
        },
        {
          "authenticator": "auth-spnego",
          "requirement": "DISABLED",
          "priority": 20,
          "userSetupAllowed": false,
          "autheticatorFlow": false
        },
        {
          "authenticator": "identity-provider-redirector",
          "requirement": "ALTERNATIVE",
          "priority": 25,
          "userSetupAllowed": false,
          "autheticatorFlow": false
        },
        {
          "requirement": "ALTERNATIVE",
          "priority": 30,
          "flowAlias": "forms",
          "userSetupAllowed": false,
          "autheticatorFlow": true
        }
      ]
    },
    {
      "id": "e3dc4adc-605f-40ea-9097-51d7b8a62139",
      "alias": "clients",
      "description": "Base authentication for clients",
      "providerId": "client-flow",
      "topLevel": true,
      "builtIn": true,
      "authenticationExecutions": [
        {
          "authenticator": "client-secret",
          "requirement": "ALTERNATIVE",
          "priority": 10,
          "userSetupAllowed": false,
          "autheticatorFlow": false
        },
        {
          "authenticator": "client-jwt",
          "requirement": "ALTERNATIVE",
          "priority": 20,
          "userSetupAllowed": false,
          "autheticatorFlow": false
        }
      ]
    },
    {
      "id": "6050b73d-af5b-4964-ab15-8dda3dabcb19",
      "alias": "direct grant",
      "description": "OpenID Connect Resource Owner Grant",
      "providerId": "basic-flow",
      "topLevel": true,
      "builtIn": true,
      "authenticationExecutions": [
        {
          "authenticator": "direct-grant-validate-username",
          "requirement": "REQUIRED",
          "priority": 10,
          "userSetupAllowed": false,
          "autheticatorFlow": false
        },
        {
          "authenticator": "direct-grant-validate-password",
          "requirement": "REQUIRED",
          "priority": 20,
          "userSetupAllowed": false,
          "autheticatorFlow": false
        },
        {
          "authenticator": "direct-grant-validate-otp",
          "requirement": "OPTIONAL",
          "priority": 30,
          "userSetupAllowed": false,
          "autheticatorFlow": false
        }
      ]
    },
    {
      "id": "73885b18-2c4e-403e-a2f4-ef8d5e39f847",
      "alias": "docker auth",
      "description": "Used by Docker clients to authenticate against the IDP",
      "providerId": "basic-flow",
      "topLevel": true,
      "builtIn": true,
      "authenticationExecutions": [
        {
          "authenticator": "docker-http-basic-authenticator",
          "requirement": "REQUIRED",
          "priority": 10,
          "userSetupAllowed": false,
          "autheticatorFlow": false
        }
      ]
    },
    {
      "id": "4c95e5be-08b1-474b-b779-8984280ba919",
      "alias": "first broker login",
      "description": "Actions taken after first broker login with identity provider account, which is not yet linked to any Keycloak account",
      "providerId": "basic-flow",
      "topLevel": true,
      "builtIn": true,
      "authenticationExecutions": [
        {
          "authenticatorConfig": "review profile config",
          "authenticator": "idp-review-profile",
          "requirement": "REQUIRED",
          "priority": 10,
          "userSetupAllowed": false,
          "autheticatorFlow": false
        },
        {
          "authenticatorConfig": "create unique user config",
          "authenticator": "idp-create-user-if-unique",
          "requirement": "ALTERNATIVE",
          "priority": 20,
          "userSetupAllowed": false,
          "autheticatorFlow": false
        },
        {
          "requirement": "ALTERNATIVE",
          "priority": 30,
          "flowAlias": "Handle Existing Account",
          "userSetupAllowed": false,
          "autheticatorFlow": true
        }
      ]
    },
    {
      "id": "e5625b49-445d-4e5d-a2b3-c5584a57670d",
      "alias": "forms",
      "description": "Username, password, otp and other auth forms.",
      "providerId": "basic-flow",
      "topLevel": false,
      "builtIn": true,
      "authenticationExecutions": [
        {
          "authenticator": "auth-username-password-form",
          "requirement": "REQUIRED",
          "priority": 10,
          "userSetupAllowed": false,
          "autheticatorFlow": false
        },
        {
          "authenticator": "auth-otp-form",
          "requirement": "OPTIONAL",
          "priority": 20,
          "userSetupAllowed": false,
          "autheticatorFlow": false
        }
      ]
    },
    {
      "id": "2a5e7e2f-c4fc-48a3-a927-076d3432c7cf",
      "alias": "registration",
      "description": "registration flow",
      "providerId": "basic-flow",
      "topLevel": true,
      "builtIn": true,
      "authenticationExecutions": [
        {
          "authenticator": "registration-page-form",
          "requirement": "REQUIRED",
          "priority": 10,
          "flowAlias": "registration form",
          "userSetupAllowed": false,
          "autheticatorFlow": true
        }
      ]
    },
    {
      "id": "f2dcc062-18cf-49c6-adc5-d947ba34e16e",
      "alias": "registration form",
      "description": "registration form",
      "providerId": "form-flow",
      "topLevel": false,
      "builtIn": true,
      "authenticationExecutions": [
        {
          "authenticator": "registration-user-creation",
          "requirement": "REQUIRED",
          "priority": 20,
          "userSetupAllowed": false,
          "autheticatorFlow": false
        },
        {
          "authenticator": "registration-profile-action",
          "requirement": "REQUIRED",
          "priority": 40,
          "userSetupAllowed": false,
          "autheticatorFlow": false
        },
        {
          "authenticator": "registration-password-action",
          "requirement": "REQUIRED",
          "priority": 50,
          "userSetupAllowed": false,
          "autheticatorFlow": false
        },
        {
          "authenticator": "registration-recaptcha-action",
          "requirement": "DISABLED",
          "priority": 60,
          "userSetupAllowed": false,
          "autheticatorFlow": false
        }
      ]
    },
    {
      "id": "926f5b8c-b494-430e-8e33-575d88249718",
      "alias": "reset credentials",
      "description": "Reset credentials for a user if they forgot their password or something",
      "providerId": "basic-flow",
      "topLevel": true,
      "builtIn": true,
      "authenticationExecutions": [
        {
          "authenticator": "reset-credentials-choose-user",
          "requirement": "REQUIRED",
          "priority": 10,
          "userSetupAllowed": false,
          "autheticatorFlow": false
        },
        {
          "authenticator": "reset-credential-email",
          "requirement": "REQUIRED",
          "priority": 20,
          "userSetupAllowed": false,
          "autheticatorFlow": false
        },
        {
          "authenticator": "reset-password",
          "requirement": "REQUIRED",
          "priority": 30,
          "userSetupAllowed": false,
          "autheticatorFlow": false
        },
        {
          "authenticator": "reset-otp",
          "requirement": "OPTIONAL",
          "priority": 40,
          "userSetupAllowed": false,
          "autheticatorFlow": false
        }
      ]
    },
    {
      "id": "c01a2733-d1f1-45d1-8bff-bf91285d573f",
      "alias": "saml ecp",
      "description": "SAML ECP Profile Authentication Flow",
      "providerId": "basic-flow",
      "topLevel": true,
      "builtIn": true,
      "authenticationExecutions": [
        {
          "authenticator": "http-basic-authenticator",
          "requirement": "REQUIRED",
          "priority": 10,
          "userSetupAllowed": false,
          "autheticatorFlow": false
        }
      ]
    }
  ],
  "authenticatorConfig": [
    {
      "id": "c2d9c379-a7fd-48e0-a75d-7ebe010b24d0",
      "alias": "create unique user config",
      "config": {
        "require.password.update.after.registration": "false"
      }
    },
    {
      "id": "c6c6c438-59f8-4bbf-9b11-a287e535c4ba",
      "alias": "review profile config",
      "config": {
        "update.profile.on.first.login": "missing"
      }
    }
  ],
  "requiredActions": [
    {
      "alias": "CONFIGURE_TOTP",
      "name": "Configure OTP",
      "providerId": "CONFIGURE_TOTP",
      "enabled": true,
      "defaultAction": false,
      "config": {}
    },
    {
      "alias": "UPDATE_PASSWORD",
      "name": "Update Password",
      "providerId": "UPDATE_PASSWORD",
      "enabled": true,
      "defaultAction": false,
      "config": {}
    },
    {
      "alias": "UPDATE_PROFILE",
      "name": "Update Profile",
      "providerId": "UPDATE_PROFILE",
      "enabled": true,
      "defaultAction": false,
      "config": {}
    },
    {
      "alias": "VERIFY_EMAIL",
      "name": "Verify Email",
      "providerId": "VERIFY_EMAIL",
      "enabled": true,
      "defaultAction": false,
      "config": {}
    },
    {
      "alias": "terms_and_conditions",
      "name": "Terms and Conditions",
      "providerId": "terms_and_conditions",
      "enabled": false,
      "defaultAction": false,
      "config": {}
    }
  ],
  "browserFlow": "browser",
  "registrationFlow": "registration",
  "directGrantFlow": "direct grant",
  "resetCredentialsFlow": "reset credentials",
  "clientAuthenticationFlow": "clients",
  "dockerAuthenticationFlow": "docker auth",
  "attributes": {
    "_browser_header.xXSSProtection": "1; mode=block",
    "_browser_header.strictTransportSecurity": "max-age=31536000; includeSubDomains",
    "_browser_header.xFrameOptions": "SAMEORIGIN",
    "quickLoginCheckMilliSeconds": "1000",
    "permanentLockout": "false",
    "displayName": "Saga KTKD",
    "_browser_header.xRobotsTag": "none",
    "maxFailureWaitSeconds": "900",
    "displayNameHtml": "KTKD",
    "minimumQuickLoginWaitSeconds": "60",
    "failureFactor": "30",
    "actionTokenGeneratedByUserLifespan": "300",
    "maxDeltaTimeSeconds": "43200",
    "_browser_header.xContentTypeOptions": "nosniff",
    "actionTokenGeneratedByAdminLifespan": "43200",
    "bruteForceProtected": "false",
    "_browser_header.contentSecurityPolicy": "frame-src 'self'; frame-ancestors 'self'; object-src 'none';",
    "waitIncrementSeconds": "60"
  },
  "keycloakVersion": "3.4.3.Final"
}