{
  "allowRemoteResourceManagement": false,
  "policyEnforcementMode": "ENFORCING",
  "resources": [
    {
      "name": "CA",
      "uri": "/ca"
    },
    {
      "name": "Default Resource",
      "uri": "/*",
      "type": "urn:saga:resources:default"
    }
  ],
  "policies": [
    {
      "name": "Default Policy",
      "description": "A policy that grants access only for users within this realm",
      "type": "js",
      "logic": "POSITIVE",
      "decisionStrategy": "AFFIRMATIVE",
      "config": {
        "code": "// by default, grants any permission associated with this policy\n$evaluation.grant();\n"
      }
    },
    {
      "name": "xin cap CA",
      "type": "role",
      "logic": "POSITIVE",
      "decisionStrategy": "UNANIMOUS",
      "config": {
        "roles": "[{\"id\":\"lvl3\",\"required\":false}]"
      }
    },
    {
      "name": "Default Permission",
      "description": "A permission that applies to the default resource type",
      "type": "resource",
      "logic": "POSITIVE",
      "decisionStrategy": "UNANIMOUS",
      "config": {
        "defaultResourceType": "urn:saga:resources:default",
        "applyPolicies": "[\"Default Policy\"]"
      }
    },
    {
      "name": "xin cap",
      "type": "resource",
      "logic": "POSITIVE",
      "decisionStrategy": "UNANIMOUS",
      "config": {
        "resources": "[\"CA\"]",
        "applyPolicies": "[\"xin cap CA\"]"
      }
    }
  ],
  "scopes": []
}